braininghub\servlets\SiteServlet.class
braininghub\servlets\WelcomeServlet.class
braininghub\model\CarDAO.class
braininghub\servlets\CarServlet.class
braininghub\servlets\MainMenuServlet.class
braininghub\model\CarDTO.class
braininghub\entities\Car.class
braininghub\entities\Car_.class
braininghub\service\CarService.class
braininghub\servlets\BookingServlet.class
braininghub\model\CarMapper.class
