hu\braininghub\bookwebhw\entities\Book_.class
hu\braininghub\bookwebhw\servlets\BookServlet.class
hu\braininghub\bookwebhw\entities\Book.class
hu\braininghub\bookwebhw\service\AuthorService.class
hu\braininghub\bookwebhw\entities\Author.class
hu\braininghub\bookwebhw\entities\Author_.class
hu\braininghub\bookwebhw\service\BookService.class
