C:\Users\Kinga\Documents\NetBeansProjects\2020_07_02-EJB-CarRental\src\main\java\braininghub\dao\SiteDAO.java
C:\Users\Kinga\Documents\NetBeansProjects\2020_07_02-EJB-CarRental\src\main\java\braininghub\servlets\CarServlet.java
C:\Users\Kinga\Documents\NetBeansProjects\2020_07_02-EJB-CarRental\src\main\java\braininghub\dao\CarDAO.java
C:\Users\Kinga\Documents\NetBeansProjects\2020_07_02-EJB-CarRental\src\main\java\braininghub\servlets\MainMenuServlet.java
C:\Users\Kinga\Documents\NetBeansProjects\2020_07_02-EJB-CarRental\src\main\java\braininghub\servlets\SiteServlet.java
C:\Users\Kinga\Documents\NetBeansProjects\2020_07_02-EJB-CarRental\src\main\java\braininghub\servlets\WelcomeServlet.java
C:\Users\Kinga\Documents\NetBeansProjects\2020_07_02-EJB-CarRental\src\main\java\braininghub\dao\BookingDAO.java
C:\Users\Kinga\Documents\NetBeansProjects\2020_07_02-EJB-CarRental\src\main\java\braininghub\servlets\BookingServlet.java
