hu\braininghub\bh12library\exception\WrongBookTitleException.class
hu\braininghub\bh12library\dto\BookDTO.class
hu\braininghub\bh12library\dao\BookDAO.class
hu\braininghub\bh12library\service\BookService.class
hu\braininghub\bh12library\bean\ListBooksPageBean.class
hu\braininghub\bh12library\entities\BaseEntity.class
hu\braininghub\bh12library\mapper\BookMapperImpl.class
hu\braininghub\bh12library\dto\BaseDTO.class
hu\braininghub\bh12library\servlet\ListBooksServlet.class
hu\braininghub\bh12library\dto\BookFilterDTO.class
hu\braininghub\bh12library\entities\BookEntity.class
hu\braininghub\bh12library\mapper\BookMapper.class
hu\braininghub\bh12library\entities\AuthorEntity.class
